1,1,1,0,0,0
1,1,1,0,0,0
1,1,1,0,0,0
1,1,1,0,0,0
1,1,1,0,0,0
1,1,1,0,0,0
1,0.8,1,0,0,0
1,0.8,1,0,0,0
1,0.8,1,0,0,0
1,0.8,1,0,0,0
1,0.8,1,0,0,0
1,0.8,1,0,0,0
1,0.8,1,0,0,0
1,0.8,1,0,0,0
1,0.8,1,0,0,0
1,0.8,1,0,0,0
1,0.8,1,0,0,0
1,0.8,1,0,0,0
1,0.8,1,0,0,0
1,0.8,1,0,0,0
1,0.8,1,0,0,0
1,0.8,1,0,0,0
1,0.8,1,0,0,0
1,0.8,1,0,0,0
1,0.8,1,0,0,0
1,0.8,1,0,0,0
1,0.8,1,0,0,0
1,0.8,1,0,0,0
1,0.8,1,0,0,0
1,0.8,1,0,0,0
1,0.8,1,0,0,0
1,0.8,1,0,0,0
1,0.8,1,0,0,0
1,0.8,1,0,0,0
1,0.8,1,0,0,0
1,0.8,1,0,0,0
1,0.8,1,0,0,0
1,0.8,1,0,0,0
1,0.8,1,0,0,0
1,0.8,1,0,0,0
1,0.8,1,0,0,0
1,0.8,1,0,0,0
1,0.8,1,0,0,0
1,0.8,1,0,0,0
1,0.8,1,0,0,0
1,0.8,1,0,0,0
1,0.8,1,0,0,0
1,0.8,1,0,0,0
2,0.8,1,0,0.5,0
2,0.8,1,0,0.5,0
1,0.8,1,0,0,0
1,0.8,1,0,0,0
1,0.8,1,0,0,0
1,0.8,1,0,0,0
1,0.8,1,0,0,0
1,0.8,1,0,0,0
1,0.8,1,0,0,0
1,0.8,1,0,0,0
1,0.8,1,0,0,0
1,0.8,1,0,0,0
2,0.8,1,0,0.5,0
2,0.8,1,0,0.5,0
1,0.8,1,0,0,0
2,0.8,1,0,0.5,0
2,0.8,1,0,0.5,0
2,0.8,1,0,0.5,0
1,0.8,1,0,0,0
1,0.8,1,0,0,0
2,0.8,1,0,1,0
2,0.8,1,0,1,0
3,0.8,1,0,0,0.5
3,0.8,1,0,0,0.5
3,0.8,1,0,0,0.5
2,0.8,1,0,0.5,0.5
2,0.8,1,0,0.5,1
3,0.8,1,1,0,0.5
3,0.8,1,1,0,0.5
3,0.8,1,1,0,0.5
2,0.8,1,1,0.5,0.5
1,0.4,1,0,0,0
1,0.4,1,0,0,0
1,0.4,1,0,0,0
1,0.4,1,0,0,0
1,0.4,1,0,0,0
1,0.4,1,0,0,0
1,0.4,1,0,0,0
1,0.4,1,0,0,0
1,0.4,1,0,0,0
1,0.4,1,0,0,0
1,0.4,1,0,0,0
3,0.4,1,0,0,0.5
3,0.4,1,0,0,1
1,0,1,0,0,0
1,0,1,0,0,0
1,0,1,0,0,0
1,0,1,0,0,0
1,0,1,0,0,0
1,0,1,0,0,0
1,0,1,0,0,0
3,0,1,1,0,0.5
